Data_Visualization_Project
…
Joined_data_2010_newer <- Joined_data %>% filter(yearID >= 2010)

Joined_data_2010_newer %>% filter(AB.player > 100) %>% group_by(teamID, yearID)%>%
  summarize(mean_salary = mean(salary, na.rm=T), median_salary=median(salary, na.rm=T)) %>%
  na.omit() %>% arrange(yearID, desc(mean_salary))

## # A tibble: 210 x 4
## # Groups:   teamID [31]
##    teamID yearID mean_salary median_salary
##    <chr>   <int>       <dbl>         <dbl>
##  1 NYA      2010   10259127.       6850000
##  2 BOS      2010    7529154.       7750000
##  3 CHN      2010    6295917.       2800000
##  4 PHI      2010    6089542        5000000
##  5 DET      2010    6056156.       2600000
##  6 NYN      2010    5809234.       5000000
##  7 SEA      2010    4824500        3000000
##  8 MIN      2010    4788782        4000000
##  9 LAN      2010    4705474.       3550000
## 10 HOU      2010    4445455.       1500000
## # … with 200 more rows

Joined_data_2010_newer <- Joined_data_2010_newer %>% mutate(Batting_Average.player =
                                                              H.player/AB.player)
Joined_data_2010_newer <- Joined_data_2010_newer %>% mutate(Batting_Average.team =
                                                              H.team/AB.team)

Joined_data_2010_newer %>% filter(AB.player > 100) %>%
  select(teamID, yearID, playerID, Batting_Average.player, Batting_Average.team, salary) %>%
  group_by(teamID, yearID) %>% summarize(mean_batting_avg=mean(Batting_Average.player), 
  sd_batting_average=sd(Batting_Average.player), salary_mean=mean(salary, na.rm=T)) %>%
  arrange(yearID, desc(salary_mean))

## # A tibble: 300 x 5
## # Groups:   teamID [31]
##    teamID yearID mean_batting_avg sd_batting_average salary_mean
##    <chr>   <int>            <dbl>              <dbl>       <dbl>
##  1 NYA      2010            0.265             0.0247   10259127.
##  2 BOS      2010            0.266             0.0308    7529154.
##  3 CHN      2010            0.264             0.0229    6295917.
##  4 PHI      2010            0.262             0.0331    6089542 
##  5 DET      2010            0.264             0.0322    6056156.
##  6 NYN      2010            0.249             0.0277    5809234.
##  7 SEA      2010            0.224             0.0337    4824500 
##  8 MIN      2010            0.265             0.0481    4788782 
##  9 LAN      2010            0.259             0.0331    4705474.
## 10 HOU      2010            0.251             0.0301    4445455.
## # … with 290 more rows
…
Joined_data %>% filter(HR.player == 73) %>% summarize(AB.player/HR.player)

##   AB.player/HR.player
## 1            6.520548

Joined_data_2010_newer %>% group_by(teamID) %>%
  summarize(mean_attendance=mean(attendance), mean_wins=mean(W)) %>%
  arrange(desc(mean_attendance))

## # A tibble: 31 x 3
##    teamID mean_attendance mean_wins
##    <chr>            <dbl>     <dbl>
##  1 LAN           3644356.      91.9
##  2 SLN           3386725.      89.9
##  3 NYA           3369561.      91.8
##  4 SFN           3221234.      81.7
##  5 LAA           3063391.      82.0
##  6 CHN           2980256.      81.4
##  7 BOS           2953420.      86.5
##  8 COL           2790222.      74.6
##  9 MIL           2727429.      82.7
## 10 PHI           2656654.      78.0
## # … with 21 more rows

Joined_data_2010_newer_longer <- Joined_data_2010_newer %>%
  pivot_longer(c("X2B.player", "X3B.player", "HR.player"), names_to="Extra_Base_Hit_Type", 
  values_to="Extra_Base_Hit_Number")

Joined_data_2010_newer_longer %>% filter(AB.player >100)%>%
  group_by(teamID, yearID, Extra_Base_Hit_Type) %>%
  summarize(mean(Extra_Base_Hit_Number))

## # A tibble: 900 x 4
## # Groups:   teamID, yearID [300]
##    teamID yearID Extra_Base_Hit_Type `mean(Extra_Base_Hit_Number)`
##    <chr>   <int> <chr>                                       <dbl>
##  1 ARI      2010 HR.player                                   13.2 
##  2 ARI      2010 X2B.player                                  20.5 
##  3 ARI      2010 X3B.player                                   2.62
##  4 ARI      2011 HR.player                                   10.4 
##  5 ARI      2011 X2B.player                                  18.7 
##  6 ARI      2011 X3B.player                                   2.57
##  7 ARI      2012 HR.player                                   11.6 
##  8 ARI      2012 X2B.player                                  20.8 
##  9 ARI      2012 X3B.player                                   2.15
## 10 ARI      2013 HR.player                                    8.86
## # … with 890 more rows

Joined_data_2010_newer %>% mutate(player_age=yearID-birthYear) %>%
  group_by(teamID, yearID, birthCountry) %>%
  summarize(mean_age=mean(player_age), n(), min(player_age), max(player_age))

## # A tibble: 2,027 x 7
## # Groups:   teamID, yearID [300]
##    teamID yearID birthCountry mean_age `n()` `min(player_age)` `max(player_age)`
##    <chr>   <int> <fct>           <dbl> <int>             <int>             <int>
##  1 ARI      2010 D.R.             25.7     6                24                27
##  2 ARI      2010 Germany          27       1                27                27
##  3 ARI      2010 Mexico           35       1                35                35
##  4 ARI      2010 P.R.             33       1                33                33
##  5 ARI      2010 USA              28.7    36                23                38
##  6 ARI      2010 Venezuela        25.7     3                23                27
##  7 ARI      2011 Cuba             32       2                28                36
##  8 ARI      2011 D.R.             29.3     3                28                31
##  9 ARI      2011 USA              29.0    40                23                38
## 10 ARI      2011 Venezuela        31.3     6                24                40
## # … with 2,017 more rows

Joined_data_2010_newer %>% filter(AB.player > 100) %>%
  group_by(birthCountry) %>% summarize(number_of_players=n()) %>%
  mutate(proportion_of_players=number_of_players/sum(number_of_players))

## # A tibble: 21 x 3
##    birthCountry number_of_players proportion_of_players
##    <fct>                    <int>                 <dbl>
##  1 Aruba                        6              0.00135 
##  2 Australia                    1              0.000225
##  3 Brazil                       9              0.00203 
##  4 CAN                         55              0.0124  
##  5 Colombia                    18              0.00406 
##  6 Cuba                       137              0.0309  
##  7 Curacao                     29              0.00653 
##  8 D.R.                       458              0.103   
##  9 Germany                     14              0.00315 
## 10 Honduras                     1              0.000225
## # … with 11 more rows
…
